<?xml version="1.0" standalone="no"?>
<!DOCTYPE svg PUBLIC "-//W3C//DTD SVG 1.1//EN" "http://www.w3.org/Graphics/SVG/1.1/DTD/svg11.dtd" >
<svg xmlns="http://www.w3.org/2000/svg" xmlns:xlink="http://www.w3.org/1999/xlink" version="1.1" viewBox="-10 0 272 256">
  <g transform="matrix(1 0 0 -1 0 220)">
   <path fill="currentColor"
d="M100 199q-10 -1 -28 -22q-4 -2 -8 -2v-8q-6 0 -20 -12q-5 -8 -6 -16l-4 -8l-4 -16q-2 -4 -2 -8v-40q9 -44 22 -56q7 -14 42 -28h32q29 8 38 24q9 15 14 34v38q-4 20 -32 40h-32q-16 -8 -24 -32v-17q1 0 6 -15l6 -6l16 -6h6l8 8q3 12 10 24v4h-16v-10l4 -3v-1l-4 -6v-4h-4
q-5 -2 -6 -4q-1 0 -2 2q-4 2 -8 2q0 4 -2 8l-6 6v14l8 16v4h4l12 8h12l16 -6q10 -5 20 -30v-36l-12 -24v-4h-8v-4q-2 -5 -4 -6q-12 -3 -24 -10h-20q-42 16 -42 24q-13 15 -22 50v38q0 4 2 8q3 16 10 32v4q16 1 48 38l24 6h4q6 -7 20 -10q12 -6 40 -36q4 -2 8 -2l34 -60
q0 -1 14 -6q1 -1 5 -6h7v16h-4l-20 8q0 4 -2 8l-26 44h-8v8l-32 26q-14 10 -20 10v8h-40v0z" />
  </g>

</svg>
