<?xml version="1.0" standalone="no"?>
<!DOCTYPE svg PUBLIC "-//W3C//DTD SVG 1.1//EN" "http://www.w3.org/Graphics/SVG/1.1/DTD/svg11.dtd" >
<svg xmlns="http://www.w3.org/2000/svg" xmlns:xlink="http://www.w3.org/1999/xlink" version="1.1" viewBox="-10 0 265 256">
  <g transform="matrix(1 0 0 -1 0 220)">
   <path fill="currentColor"
d="M12 33v-6h6l8 8q2 4 2 8h8v4l10 20l8 48q4 16 8 16q27 53 66 62q3 2 6 2h5q0 -1 21 -6q32 -14 32 -20q4 -2 8 -2v-8h8q11 -18 18 -44q2 -3 2 -6v-26q-1 0 -6 -20q-19 -37 -50 -46q-8 -2 -16 -2v-12q28 5 40 14q34 31 34 42q1 6 6 20v32q0 4 -2 8q-13 51 -54 74
q-12 3 -24 10h-20q-8 4 -9 4q-3 0 -3 -2q-39 -7 -66 -58q-14 -26 -20 -76q-11 -29 -26 -38zM76 95v-37q1 0 6 -15q5 -11 22 -26q12 -9 40 -14v12q-16 0 -32 10q-22 17 -28 38v24q2 20 36 40h24q18 -6 28 -28v-16l-4 -8v-4h-4q-4 -1 -8 -6q-6 -2 -12 -2v-12h4q0 1 16 6
q12 9 16 22v24q-12 26 -16 26l-32 10h-12v-2q-6 -4 -20 -8q-8 -3 -24 -34z" />
  </g>

</svg>
