<?xml version="1.0" standalone="no"?>
<!DOCTYPE svg PUBLIC "-//W3C//DTD SVG 1.1//EN" "http://www.w3.org/Graphics/SVG/1.1/DTD/svg11.dtd" >
<svg xmlns="http://www.w3.org/2000/svg" xmlns:xlink="http://www.w3.org/1999/xlink" version="1.1" viewBox="-10 0 1034 1024">
  <g transform="matrix(1 0 0 -1 0 820)">
   <path fill="currentColor"
d="M352 628v-64q16 -52 64 -88l64 -24h32l64 24q48 36 64 88v64q-16 52 -64 88l-64 24h-64v-8q-28 -4 -72 -56l-24 -48v0zM480 724h32l64 -24q24 -12 48 -72v-64q-24 -60 -48 -72l-64 -24h-32l-64 24q-24 12 -48 72v64q24 60 48 72l64 24v0zM64 324v-64q16 -52 64 -88
l64 -24h32l64 24q48 44 48 72h16q0 -28 48 -72l64 -24v-16q-16 0 -32 -8q-48 -36 -64 -88v-64q16 -52 64 -88l64 -24h32l64 24q48 36 64 88v64q-16 52 -64 88l-64 24v16q16 0 32 8q48 44 48 72h32q0 -28 48 -72l64 -24h32l64 24q48 36 64 88v64q-16 52 -64 88l-64 24h-32
l-64 -24q-48 -44 -48 -72h-32q0 28 -48 72l-64 24h-32l-64 -24q-48 -44 -48 -72h-16q0 28 -48 72l-64 24h-64v-8q-28 -4 -72 -56l-24 -48v0zM192 420h32l64 -24q24 -12 48 -72v-64q-24 -60 -48 -72l-64 -24h-32l-64 24q-24 12 -48 72v64q24 60 48 72l64 24v0zM464 420h32
l64 -24q24 -12 48 -72v-64q-24 -60 -48 -72l-64 -24h-32l-64 24q-24 12 -48 72v64q24 60 48 72l64 24v0zM752 420h32l64 -24q24 -12 48 -72v-64q-24 -60 -48 -72l-64 -24h-32l-64 24q-24 12 -48 72v64q24 60 48 72l64 24v0zM496 132h32l64 -24q24 -12 48 -72v-64
q-24 -60 -48 -72l-64 -24h-32l-64 24q-24 12 -48 72v64q24 60 48 72l64 24v0z" />
  </g>

</svg>
